{
  "us-east-1": {
    "us-east-1_XpMZuE03g": {
      "FvCicfngeC66EBu4G+OyD75nG0FDwhQJhwV2r4Ov848=": "-----BEGIN PUBLIC KEY-----\nMIIBIjANBgkqhkiG9w0BAQEFAAOCAQ8AMIIBCgKCAQEAhfP7PGnfLdH0mdp/F+xh\nCXBCFkPtIJIIfR9aQKa01qEHvnq812LYE25VQnDS0BiTPsUNUqglFVdfXQHxXOFm\nt0mSnFQzUOvNKL3aDUBJ2Pl+v7TaZK0QxHZWbYSzl5XHebxViplGfaewAW1hpucB\nLn2YYyHd2wpsrfpNWze1Kg7JHZM6ZfXogU1aZL0Y7HaiV3VpGqtyTYO0u64MyuJe\no0S5QsrzRqZiYAIKkuJZFume76eIE0Dj0a2bMqaTubR4Rt/5+7+f4XzabYY50yJV\nvWK0hHZPswNUp3qT3HuLChtONlDrK1dIXCRRjC7fS6rHMp+BlYbXQKNslde/CDpe\nVQIDAQAB\n-----END PUBLIC KEY-----\n",
      "A+HJQBoe5NfsE1F1sj+AUz8eSR3emzVN0hGUblgsIj8=": "-----BEGIN PUBLIC KEY-----\nMIIBIjANBgkqhkiG9w0BAQEFAAOCAQ8AMIIBCgKCAQEAkY0b30IEqCf+TmV7U0my\nT5QLxI0lZN74BOKM61EnSg8xCtKhuZAO9njv2DnVCNXPCrPK3iUuCNIqLpKE/VGY\nBxbInCldV8cBUBD8OJBAMdcoWtiUmlRDX3jdU6yX6w0X1tm46x/jMjXCjuummk1k\nhPjkXSWm+qryQ3ahux0boEohai3JtnvjOQv/7jdV/sn/OkQL5bz1ksKaRV4UIVgi\nxotXvrAoGf5d4syjUEQaHxn8biaVp9HZBxmx7qgVa3NHnMaVGIyvu2Vd8dSvJMz7\nU4BJFahI3XLffadCRwXKVbPbuf8wwIoUDk/qLIAuIAnnqQ01LLxECDy+zCg2qrZS\n/QIDAQAB\n-----END PUBLIC KEY-----\n"
    }
  }
}